{
  "success": true,
  "results": [
    {
      "dappId": 27244,
      "name": "MetaLend",
      "description": "Borrow WETH against Axies, Mystics and Axie Land on Ronin.",
      "fullDescription": "<p>MetaLend enables borrowers to take out ERC-20 based loans against yield-generating ERC-721 assets. Borrowers still have partial access to their ERC-721 assets and have full rights to any yield that is generated by that asset.</p>",
      "logo": "https://dashboard-assets.dappradar.com/document/27244/metalend-dapp-defi-ronin-logo_fbcf6fc32f60c87879b3af1de0da38bc.png",
      "link": "https://dappradar.com/ronin/defi/metalend",
      "website": "https://metalend.tech/",
      "chains": [
        "ronin"
      ],
      "categories": [
        "defi"
      ]
    },
    {
      "dappId": 27246,
      "name": "RinkRatIceClub",
      "description": "Welcome to the home of RinkRatIceClub. Discover the best items in this collection.",
      "fullDescription": "<p>Welcome to the home of RinkRatIceClub. Discover the best items in this collection.</p>",
      "logo": "https://dashboard-assets.dappradar.com/document/27246/rinkraticeclub-dapp-collectibles-ethereum-logo_a6f1495213b876cae3a5018a532dd119.png",
      "link": "https://dappradar.com/ethereum/collectibles/rinkraticeclub",
      "website": "https://www.rinkraticeclub.com/",
      "chains": [
        "ethereum"
      ],
      "categories": [
        "collectibles"
      ]
    },
    {
      "dappId": 27278,
      "name": "Rocky Miner",
      "description": "BUSD staking project with a return of 4% to 8% daily. The algorithm is based on intelligent liquidity, stake and earn huge interest!",
      "fullDescription": "<p>\u26cf? Rocky Miner ?\u26cf</p>\n<p>\u2705 THE SAFEST PLATFORM OF THE MOMENT \u2705</p>\n<p>It's a BUSD staking project with a return of 4% to 8% daily. The algorithm is based on intelligent liquidity, generating interest for each user who deposits.</p>\n<p>??Get benefits for the deposit of your BUSD, in addition to earning more money with our referral system that has the following levels:??</p>\n<p>?LV1: 8% profit on your first referral ?</p>\n<p>?LV2: 9% profit with 2 referred users ?</p>\n<p>?LV3: 10% profit with 3 referred users ?</p>\n<p>?LV4: 11% profit with 4 referred users ?</p>\n<p>?LV5: 12% profit with +5 referred users ?</p>\n<p></p>",
      "logo": "https://dashboard-assets.dappradar.com/document/27278/rockyminer-dapp-defi-bsc-logo_92d82702ed912af10b96f278b03a2c29.png",
      "link": "https://dappradar.com/binance-smart-chain/high-risk/rocky-miner",
      "website": "https://rockyminer.com/",
      "chains": [
        "binance-smart-chain"
      ],
      "categories": [
        "high-risk"
      ]
    },
    {
      "dappId": 27286,
      "name": "Reflect Doge - RFLCTMINE",
      "description": "Earn up to 10% on BNB , ETH and POM \n10% Treasury Fee\nRFLCTMINE - The most decentralized Multichain Mining Protocol.\nNo Ownerfunctions.",
      "fullDescription": "<p>Earn up to 10% daily on BNB , ETH and POM in our Gamified Staking RFLCTMINE Dapp.</p>\n<p>No Ownerfunctions , SAFU TVL nobody can ever turn it off once started.</p>\n<p>Liquidate your Initial for Hashrate and earn ongoing up to 10% Daily</p>\n<p>10% Deposit + 10% Withdrawal Fee -&gt; 5% Treasury , 5% Ref</p>\n<p>Recommended Strategy - 6x Compound - 1x Claim - Rinse Repeat.</p>\n<p>KYCd and Doxxed Team</p>\n<p>Launch 02/10/23 6pm UTC</p>",
      "logo": "https://dashboard-assets.dappradar.com/document/27286/reflectdogerflctmine-dapp-defi-ethereum-logo_bd412d4ae92bfea0f0f41f63245361e8.png",
      "link": "https://dappradar.com/ethereum/high-risk/reflect-doge-rflctmine",
      "website": "https://miner.reflectdoge.io",
      "chains": [
        "ethereum",
        "binance-smart-chain"
      ],
      "categories": [
        "high-risk"
      ]
    },
    {
      "dappId": 27294,
      "name": "Baymax Finance",
      "description": "Elevating the standard of Decentralization and Real Yield earning, Baymax Finance revolutionizes trading with no slippage, best rate, and no liquidation wicks.",
      "fullDescription": "<p>Get ready for a game-changing experience with Baymax Finance, the premier decentralized and non-custodial perpetual DEX on Avalanche. Elevating the standard of Decentralization and Real Yield earning, Baymax Finance revolutionizes the trading arena with no slippage, best-priced exchanges, and no liquidation wicks. Join the next level of trading with Baymax Finance!</p>\n<p></p>\n<p>Feel free to choose your journey with Baymax!</p>\n<ul>\n  <li><strong>Spot trading</strong> with swaps and limit orders</li>\n  <li><strong>Perpetual futures trading</strong> with up to 50x leverage on both long and short positions</li>\n  <li><strong>Provide liquidity:</strong> Enjoy a hedged token against market volatility whilst sharing 60% of platform revenue</li>\n</ul>\n<p></p>\n<p>Enter the world of the next generation of DEX :</p>\n<p></p>\n<ul>\n  <li><strong>Real yields: </strong>Huge revenue for our protocol will be generated, and it has always been our business to distribute this protocol revenue in the form of $AVAX to our token holders. (Expect even larger revenue with more distribution).</li>\n  <li><strong>Capital efficiency:</strong> Baymax doesn\u2019t require a huge TVL to power all trading needs at optimal trading volume.</li>\n  <li><strong>Better yields and low risk for liquidity providers: </strong>BLP is a really attractive token for liquidity providers simply because it represents and tracks the value of the largest cryptocurrencies. It provides a meaningful hedged position for liquidity providers, where the BLP token gains value (APR) from trading fees accrued. In addition, there will be nearly zero risk for holding BLP as you could redeem any tokens in the pool asset at any time.</li>\n</ul>",
      "logo": "https://dashboard-assets.dappradar.com/document/27294/baymaxfinance-dapp-defi-avalanche-logo_406235d15450dc19d10655234dd4dfa9.png",
      "link": "https://dappradar.com/avalanche/defi/baymax-finance",
      "website": "https://www.baymax.fi/#/",
      "chains": [
        "avalanche"
      ],
      "categories": [
        "defi"
      ]
    },
    {
      "dappId": 27302,
      "name": "MDCC",
      "description": "The Mad Dog Token (MD Token) is fundamentally designed as a native utility and governance token. Community-led governance on the Cardano Blockchain.",
      "fullDescription": "<p>Not custodial raffles using Cardano Smart Contracts</p>",
      "logo": "https://dashboard-assets.dappradar.com/document/27302/mdcc-dapp-games-cardano-logo_073ef86321d002eb4903a821037f4fcb.png",
      "link": "https://dappradar.com/cardano/games/mdcc",
      "website": "https://mdtoken.io/",
      "chains": [
        "cardano"
      ],
      "categories": [
        "games"
      ]
    }
  ],
  "page": 1360,
  "pageCount": 1360,
  "resultCount": 13596,
  "resultsPerPage": 10
}